{
  "files": {
    "main.css": "/static/css/main.7ffb0137.chunk.css",
    "main.js": "/static/js/main.20e44c44.chunk.js",
    "main.js.map": "/static/js/main.20e44c44.chunk.js.map",
    "runtime-main.js": "/static/js/runtime-main.d4e3f241.js",
    "runtime-main.js.map": "/static/js/runtime-main.d4e3f241.js.map",
    "static/css/2.66ab08a8.chunk.css": "/static/css/2.66ab08a8.chunk.css",
    "static/js/2.33ff9ca6.chunk.js": "/static/js/2.33ff9ca6.chunk.js",
    "static/js/2.33ff9ca6.chunk.js.map": "/static/js/2.33ff9ca6.chunk.js.map",
    "static/js/3.6c3a6633.chunk.js": "/static/js/3.6c3a6633.chunk.js",
    "static/js/3.6c3a6633.chunk.js.map": "/static/js/3.6c3a6633.chunk.js.map",
    "static/js/4.f4030c12.chunk.js": "/static/js/4.f4030c12.chunk.js",
    "static/js/4.f4030c12.chunk.js.map": "/static/js/4.f4030c12.chunk.js.map",
    "index.html": "/index.html",
    "precache-manifest.8754a465ca1440f6983005e6d94e2eed.js": "/precache-manifest.8754a465ca1440f6983005e6d94e2eed.js",
    "service-worker.js": "/service-worker.js",
    "static/css/2.66ab08a8.chunk.css.map": "/static/css/2.66ab08a8.chunk.css.map",
    "static/css/main.7ffb0137.chunk.css.map": "/static/css/main.7ffb0137.chunk.css.map",
    "static/js/2.33ff9ca6.chunk.js.LICENSE.txt": "/static/js/2.33ff9ca6.chunk.js.LICENSE.txt",
    "static/js/3.6c3a6633.chunk.js.LICENSE.txt": "/static/js/3.6c3a6633.chunk.js.LICENSE.txt",
    "static/js/4.f4030c12.chunk.js.LICENSE.txt": "/static/js/4.f4030c12.chunk.js.LICENSE.txt",
    "static/js/main.20e44c44.chunk.js.LICENSE.txt": "/static/js/main.20e44c44.chunk.js.LICENSE.txt",
    "static/media/Apartment.jpg": "/static/media/Apartment.fff60482.jpg",
    "static/media/Bungalow.jpg": "/static/media/Bungalow.6f7dbeb1.jpg",
    "static/media/Default.png": "/static/media/Default.b8b18cae.png",
    "static/media/DefaultImg.svg": "/static/media/DefaultImg.3fc5720b.svg",
    "static/media/Healthcare.jpg": "/static/media/Healthcare.2e42f64c.jpg",
    "static/media/Hospitality.jpg": "/static/media/Hospitality.a3225f5b.jpg",
    "static/media/Independent_Home.jpg": "/static/media/Independent_Home.e199d961.jpg",
    "static/media/Industrial.jpg": "/static/media/Industrial.b1d96bce.jpg",
    "static/media/Institutional.jpg": "/static/media/Institutional.601eebbd.jpg",
    "static/media/Logo.png": "/static/media/Logo.7d08259a.png",
    "static/media/Office_Corporate_and_Tech.jpg": "/static/media/Office_Corporate_and_Tech.31f63d37.jpg",
    "static/media/Penthouse.jpg": "/static/media/Penthouse.564b124b.jpg",
    "static/media/Retail.jpg": "/static/media/Retail.f03287d9.jpg",
    "static/media/Soldout.png": "/static/media/Soldout.3ec882e2.png",
    "static/media/Stand_Alone_Building.jpg": "/static/media/Stand_Alone_Building.5ca3b8ae.jpg",
    "static/media/Success.svg": "/static/media/Success.42f10c06.svg",
    "static/media/Villa.jpg": "/static/media/Villa.766af4e6.jpg",
    "static/media/emptycart.png": "/static/media/emptycart.54eca303.png",
    "static/media/file.docx": "/static/media/file.1f3795b2.docx",
    "static/media/pic.jpg": "/static/media/pic.650493aa.jpg"
  },
  "entrypoints": [
    "static/js/runtime-main.d4e3f241.js",
    "static/css/2.66ab08a8.chunk.css",
    "static/js/2.33ff9ca6.chunk.js",
    "static/css/main.7ffb0137.chunk.css",
    "static/js/main.20e44c44.chunk.js"
  ]
}